<?xml version="1.0" encoding="UTF-8"?>
<svg width="27px" height="24px" viewBox="0 0 27 24" version="1.1" xmlns="http://www.w3.org/2000/svg" xmlns:xlink="http://www.w3.org/1999/xlink">
    <!-- Generator: Sketch 49.1 (51147) - http://www.bohemiancoding.com/sketch -->
    <title>BookmarkIcon</title>
    <desc>Created with Sketch.</desc>
    <defs></defs>
    <g id="BookmarkIcon" stroke="none" stroke-width="1" fill="none" fill-rule="evenodd">
        <g id="bookmark(3)" transform="translate(7.000000, 1.000000)" fill="#EEEEEE" fill-rule="nonzero" stroke="#EEEEEE" stroke-width="0.918455237">
            <path d="M11.6666812,0 L2.33331875,0 C1.0472,0 0,1.02759565 0,2.29164787 L0,21.5416103 C0,21.7267623 0.11388125,21.8945119 0.2884,21.9642071 C0.46291875,22.0366093 0.6636,21.9963047 0.79708125,21.8652073 L7,15.7730668 L13.2029188,21.8661526 C13.2925187,21.9532501 13.412,22 13.5333188,22 C13.5930375,22 13.6537188,21.989 13.7116,21.9651524 C13.8861187,21.8945549 14,21.7268052 14,21.5416532 L14,2.29169084 C14,1.02849799 12.9528,0 11.6666812,0 Z M13.0666813,20.4343077 L7.3304,14.8004711 C7.23891875,14.7115689 7.11948125,14.6666237 7,14.6666237 C6.88051875,14.6666237 6.76108125,14.711526 6.6696,14.8013734 L0.93331875,20.4352101 L0.93331875,2.29164787 C0.93331875,1.53355169 1.5614375,0.916650553 2.33331875,0.916650553 L11.6666375,0.916650553 C12.4385188,0.916650553 13.0666375,1.53355169 13.0666375,2.29164787 L13.0666375,20.4343077 L13.0666813,20.4343077 Z" id="Shape"></path>
        </g>
    </g>
</svg>